{
  "name": "",
  "css_prefix_text": "icon-",
  "css_use_suffix": false,
  "hinting": true,
  "units_per_em": 1000,
  "ascent": 850,
  "glyphs": [
    {
      "uid": "a71e987823cf852932854c280f91ad2a",
      "css": "title",
      "code": 59392,
      "src": "custom_icons",
      "selected": true,
      "svg": {
        "path": "M884.5 356.5L478 139.6 67 347.4 473.5 568.9 884.5 356.5ZM477.1 216.5L737.9 355.5 474.3 491.7 213.6 349.6 477.1 216.5ZM479.7 739.1L49.8 519 80.9 458.3 479.7 662.5 887.8 452.7 919 513.3 479.7 739.1ZM933.1 700.8L486 930 29.9 695.1 61.1 634.5 486.1 853.3 902.1 640.1 933.1 700.8Z",
        "width": 1000
      },
      "search": [
        "icon-title"
      ]
    }
  ]
}