<?xml version="1.0" encoding="UTF-8" standalone="no"?>
<!DOCTYPE svg PUBLIC "-//W3C//DTD SVG 1.1//EN" "http://www.w3.org/Graphics/SVG/1.1/DTD/svg11.dtd">
<svg width="100%" height="100%" viewBox="0 0 32 25" version="1.1" xmlns="http://www.w3.org/2000/svg" xmlns:xlink="http://www.w3.org/1999/xlink" xml:space="preserve" xmlns:serif="http://www.serif.com/" style="fill-rule:evenodd;clip-rule:evenodd;stroke-linejoin:round;stroke-miterlimit:2;">
    <g transform="matrix(1,0,0,1,-680,-1851.61)">
        <g transform="matrix(2.4,0,0,1,-318.462,650)">
            <g transform="matrix(0.00992063,0,0,0.0238095,416.026,1201.61)">
                <path d="M1140.86,448.736C1132.42,446.112 1123.46,450.72 1120.77,459.136C1118.11,467.552 1122.75,476.544 1131.17,479.232C1256.22,519.072 1312,578.496 1312,672C1312,755.168 1236.13,819.712 1190.94,850.816C1186.59,853.824 1184,858.72 1184,864L1184,986.336C1160.64,977.632 1119.9,957.856 1083.97,917.376C1080.22,913.184 1074.53,911.264 1068.99,912.288C1059.87,914.048 1050.56,916.544 1041.12,919.072C1024.8,923.456 1007.97,928 992,928C909.824,928 852.288,910.336 793.472,867.104C786.304,861.856 776.352,863.424 771.104,870.528C765.856,877.664 767.392,887.648 774.496,892.896C839.36,940.576 902.368,960 992,960C1012.19,960 1031.14,954.912 1049.44,949.984C1055.14,948.416 1060.8,946.88 1066.4,945.568C1126.21,1008.74 1193.86,1023.1 1196.8,1023.68C1197.86,1023.9 1198.91,1024 1200,1024C1203.65,1024 1207.26,1022.75 1210.11,1020.38C1213.86,1017.34 1216,1012.8 1216,1008L1216,872.352C1298.62,813.44 1344,742.528 1344,672C1344,563.808 1279.46,492.864 1140.86,448.736ZM1056,432C1056,185.728 831.424,0 533.664,0C234.4,0 0,189.792 0,432.064C0,577.312 102.752,681.376 192,744.352L192,956.704C192,962.144 194.752,967.168 199.296,970.144C201.952,971.84 204.96,972.704 208,972.704C210.208,972.704 212.448,972.224 214.56,971.296C219.232,969.216 328.448,919.584 421.888,817.408C462.368,824.928 508.16,832.16 549.696,832.16C852.512,832.16 1056,671.328 1056,432ZM549.664,800.16C507.744,800.16 460.096,792.128 419.008,784.288C413.472,783.296 407.776,785.184 404.032,789.376C338.432,863.36 261.344,910.368 224,930.624L224,736C224,730.72 221.408,725.824 217.056,722.816C132.64,664.736 32,567.2 32,432.064C32,207.712 252.352,32 533.664,32C813.216,32 1024,203.968 1024,432C1024,652.224 833.376,800.16 549.664,800.16ZM528,368C492.704,368 464,396.704 464,432C464,467.296 492.704,496 528,496C563.296,496 592,467.296 592,432C592,396.704 563.296,368 528,368ZM528,464C510.368,464 496,449.664 496,432C496,414.336 510.368,400 528,400C545.632,400 560,414.336 560,432C560,449.664 545.632,464 528,464ZM752,368C716.704,368 688,396.704 688,432C688,467.296 716.704,496 752,496C787.296,496 816,467.296 816,432C816,396.704 787.296,368 752,368ZM752,464C734.368,464 720,449.664 720,432C720,414.336 734.368,400 752,400C769.632,400 784,414.336 784,432C784,449.664 769.632,464 752,464ZM304,371.04C268.704,371.04 240,399.744 240,435.04C240,470.336 268.704,499.04 304,499.04C339.296,499.04 368,470.336 368,435.04C368,399.744 339.296,371.04 304,371.04ZM304,467.04C286.368,467.04 272,452.704 272,435.04C272,417.376 286.368,403.04 304,403.04C321.632,403.04 336,417.376 336,435.04C336,452.704 321.632,467.04 304,467.04Z" style="fill:white;fill-rule:nonzero;"/>
            </g>
        </g>
    </g>
</svg>
