<?xml version="1.0" encoding="UTF-8" standalone="no"?>
<!DOCTYPE svg PUBLIC "-//W3C//DTD SVG 1.1//EN" "http://www.w3.org/Graphics/SVG/1.1/DTD/svg11.dtd">
<svg width="100%" height="100%" viewBox="0 0 24 22" version="1.1" xmlns="http://www.w3.org/2000/svg" xmlns:xlink="http://www.w3.org/1999/xlink" xml:space="preserve" xmlns:serif="http://www.serif.com/" style="fill-rule:evenodd;clip-rule:evenodd;stroke-linejoin:round;stroke-miterlimit:2;">
    <g transform="matrix(1,0,0,1,-379.156,-453.076)">
        <g transform="matrix(1,0,0,1,-557.344,-628.015)">
            <g transform="matrix(0.0340899,0,0,0.0340899,935.409,1078.91)">
                <path d="M635.04,128L423.552,378.048C418.848,383.584 416,390.816 416,398.72L416,620.224L352,588.224L352,398.72C352.032,391.456 349.536,384.096 344.448,378.048L132.96,128L635.04,128ZM704,64L64,64C46.336,64 32,78.336 32,96C32,103.904 34.848,111.136 39.552,116.672L288,410.432L288,608C288,620.448 295.104,631.264 305.696,636.608L433.696,700.608C449.504,708.512 468.736,702.112 476.64,686.304C478.944,681.632 480.032,676.672 480,672L480,410.432L728.448,116.672C739.872,103.168 738.176,82.976 724.672,71.584C718.624,66.464 711.264,63.968 704,64Z" style="fill:rgb(50,50,50);fill-rule:nonzero;"/>
            </g>
        </g>
    </g>
</svg>
